\contentsline {section}{前言}{6}{section*.2}
\contentsline {section}{Pandoc 手冊}{7}{section*.3}
\contentsline {section}{協同產品設計實習專案(2ag1)}{8}{section*.4}
\contentsline {subsection}{組員}{8}{section*.5}
\contentsline {subsection}{w8考試}{8}{section*.6}
\contentsline {subsection}{w9考試}{9}{section*.7}
\contentsline {subsection}{w12}{11}{section*.8}
\contentsline {subsection}{w13}{12}{section*.9}
\contentsline {subsection}{w14}{13}{section*.10}
\contentsline {subsection}{w15}{15}{section*.11}
\contentsline {subsection}{w16}{16}{section*.12}
\contentsline {subsection}{w17}{17}{section*.13}
\contentsline {subsection}{w18}{17}{section*.14}
\contentsline {section}{網際鼓式煞車設計(2ag2)}{18}{section*.15}
\contentsline {section}{程式設計架構}{18}{section*.16}
\contentsline {section}{結果與討論}{18}{section*.17}
\contentsline {section}{協同產品設計(2ag3)}{18}{section*.18}
\contentsline {subsection}{組員}{18}{section*.19}
\contentsline {subsection}{W12任務}{18}{section*.20}
\contentsline {subsection}{W12摘要報告}{18}{section*.21}
\contentsline {subsection}{W13摘要報告}{20}{section*.22}
\contentsline {subsection}{W13心得}{21}{section*.23}
\contentsline {subsection}{W14摘要報告}{22}{section*.24}
\contentsline {subsection}{W14心得}{22}{section*.25}
\contentsline {subsection}{W15摘要報告}{23}{section*.26}
\contentsline {subsection}{W15心得}{23}{section*.27}
\contentsline {section}{上課內容及連結(2ag4)}{24}{section*.28}
\contentsline {subsection}{組 員}{24}{section*.29}
\contentsline {subsection}{w9}{25}{section*.30}
\contentsline {subsection}{w12}{25}{section*.31}
\contentsline {subsection}{w13}{25}{section*.32}
\contentsline {subsection}{w14}{25}{section*.33}
\contentsline {subsection}{w15}{26}{section*.34}
\contentsline {subsection}{w16}{26}{section*.35}
\contentsline {subsection}{這裡是結果與討論}{26}{section*.36}
\contentsline {section}{協同產品設計(2ag5)}{26}{section*.37}
\contentsline {subsection}{期中內容摘要}{26}{section*.38}
\contentsline {subsection}{2014s\_cd\_w12}{27}{section*.39}
\contentsline {subsection}{2014s\_cd\_w13}{27}{section*.40}
\contentsline {subsection}{2014s\_cd\_w14}{30}{section*.41}
\contentsline {subsection}{2014s\_cd\_w15}{31}{section*.42}
\contentsline {subsection}{2014s\_cd\_w16\textasciitilde {}18}{32}{section*.43}
\contentsline {subsection}{期末專案報告}{33}{section*.44}
\contentsline {section}{協同產品設計實習(2ag6)}{40}{section*.45}
\contentsline {subsection}{組員}{40}{section*.46}
\contentsline {subsection}{第八週考試內容}{40}{section*.47}
\contentsline {subsection}{第九週考試內容}{41}{section*.48}
\contentsline {subsection}{第十二週任務}{41}{section*.49}
\contentsline {subsection}{第十三週任務}{41}{section*.50}
\contentsline {subsection}{第十四週任務}{42}{section*.51}
\contentsline {subsection}{第十五週任務}{43}{section*.52}
\contentsline {section}{協同產品設計實習專案(2ag7)}{43}{section*.53}
\contentsline {subsection}{組員}{43}{section*.54}
\contentsline {subsection}{w8摘要}{43}{section*.55}
\contentsline {subsection}{w9摘要}{44}{section*.56}
\contentsline {subsection}{w12}{44}{section*.57}
\contentsline {subsection}{w13}{45}{section*.58}
\contentsline {subsection}{w14}{46}{section*.59}
\contentsline {subsection}{w15}{47}{section*.60}
\contentsline {subsection}{w16}{49}{section*.61}
\contentsline {section}{網際鼓式煞車設計(2ag8)}{49}{section*.62}
\contentsline {section}{程式碼}{50}{section*.63}
\contentsline {section}{協同產品設計實習(cdag9)}{51}{section*.64}
\contentsline {subsection}{組員}{51}{section*.65}
\contentsline {subsection}{W9考試}{52}{section*.66}
\contentsline {subsection}{W13}{52}{section*.67}
\contentsline {subsection}{W14}{53}{section*.68}
\contentsline {subsection}{W15}{53}{section*.69}
\contentsline {section}{cd2ag10報告(2ag10)}{53}{section*.70}
\contentsline {subsection}{第十組組員(2ag10)}{54}{section*.71}
\contentsline {subsection}{第八週考試摘要(2ag10)}{54}{section*.72}
\contentsline {subsection}{第八週報告(2ag10)}{56}{section*.73}
\contentsline {subsection}{第九週考試摘要(2ag10)}{57}{section*.74}
\contentsline {subsection}{第九週報告(2ag10)}{58}{section*.75}
\contentsline {subsection}{第十二週報告(2ag10)}{61}{section*.76}
\contentsline {subsection}{第十二週評分(2ag10)}{63}{section*.77}
\contentsline {subsection}{第十三週考試(2ag10)}{63}{section*.78}
\contentsline {subsection}{第十三週報告(2ag10)}{64}{section*.79}
\contentsline {subsection}{第十三週評分(2ag10)}{64}{section*.80}
\contentsline {subsection}{第十四週任務(2ag10)}{65}{section*.81}
\contentsline {subsection}{第十四週報告(2ag10)}{65}{section*.82}
\contentsline {subsection}{第十四週評分(2ag10)}{66}{section*.83}
\contentsline {subsection}{第十五週任務(2ag10)}{66}{section*.84}
\contentsline {subsection}{第十五週報告(2ag10)}{67}{section*.85}
\contentsline {section}{cd2ag11報告(2ag11)}{68}{section*.86}
\contentsline {section}{第十一組組員(2ag11)}{68}{section*.87}
\contentsline {section}{convert user\_password into sha1 encoded string}{68}{section*.88}
\contentsline {section}{generate random user password}{69}{section*.89}
\contentsline {section}{call gen\_users\_auth\_php() to generate users\_auth.php file}{69}{section*.90}
\contentsline {section}{網際鼓式煞車設計(2ag12)}{72}{section*.91}
\contentsline {section}{程式設計架構}{72}{section*.92}
\contentsline {section}{結果與討論}{72}{section*.93}
\contentsline {section}{協同產品設計實習專案(2ag13)}{72}{section*.94}
\contentsline {subsection}{組員：}{72}{section*.95}
\contentsline {section}{協同產品設計實習專案(2ag14)}{75}{section*.96}
\contentsline {subsection}{組員}{75}{section*.97}
\contentsline {subsection}{w8}{76}{section*.98}
\contentsline {subsection}{w9}{79}{section*.99}
\contentsline {subsection}{w13}{80}{section*.100}
\contentsline {subsection}{w14}{80}{section*.101}
\contentsline {subsection}{w15}{81}{section*.102}
\contentsline {section}{網際鼓式煞車設計(2ag15)}{82}{section*.103}
\contentsline {section}{程式設計架構}{82}{section*.104}
\contentsline {section}{結果與討論}{82}{section*.105}
\contentsline {section}{協同產品設計實習專案(2ag16)}{84}{section*.106}
\contentsline {section}{W14}{84}{section*.107}
\contentsline {subsection}{W14 任務 3 (5 分): 請修改上週小人偶自動組立程式, 以組為單位, 將組立命名為 remsub6 函式, 當使用者連結至各組雲端網站中的 remsub6, 可以完成自動組立, 操作完成後, 請將分組心得與相關連結放入各組協同報告中}{85}{section*.108}
\contentsline {subsection}{心得: 這禮拜任務跟上禮拜很像都是組裝，不過這禮拜遇到的問題，卻跟上禮拜的不太一樣，這禮拜所遇到的問題是在Creo裡面如何將單一零件固定在正中間，想了很 多辦法，有一部分是不太會用creo，有一部分是高職時未學過3D軟體，所以在使用過程會遇到很多問題，不過有請教同學。}{85}{section*.109}
\contentsline {subsection}{vimeo影片: https://vimeo.com/96809624}{85}{section*.110}
\contentsline {section}{協同產品設計實習專案(2ag16)}{86}{section*.111}
\contentsline {section}{W15}{86}{section*.112}
\contentsline {subsection}{W15 任務 3 (5 分): 請修改上週小人偶自動組立程式, 以組為單位, 將組立命名為 remsub5 函式, 當使用者連結至各組雲端網站中的 remsub5, 可以完成自動組立, 操作完成後, 請將分組心得與相關連結放入各組協同報告中.}{86}{section*.113}
\contentsline {subsection}{心得:由於上次對creo繪圖軟體不熟，經過上次的練習，以及自己回家練習後，對軟體有深入的了解，上次一直在想如何將零件置中，後來想到到零件裡面長出 的不分讓他左右平均長出，這禮拜又發現有新的方法，就是將獨立零件設立一個面在中間，這樣一來就可以方便讓零件置中，也不會影響到協同的夥伴們。 這禮拜教授一樣要讓我們學習如何組裝零件，讓我們更熟悉如何組裝，這樣在打程式的過程中，才知道要先組裝哪個零件要先組裝哪一個零件。}{87}{section*.114}
\contentsline {subsection}{CMSimply網站，Edit→圖片→Image URL→右側圖案→image upload→404 Not Found 發現問題}{87}{section*.115}
\contentsline {section}{組員}{87}{section*.116}
\contentsline {section}{第八週摘要報告}{88}{section*.117}
\contentsline {section}{第九週摘要報告}{88}{section*.118}
\contentsline {section}{第13週}{89}{section*.119}
\contentsline {section}{第14週}{89}{section*.120}
\contentsline {section}{心得}{89}{section*.121}
\contentsline {section}{第15週}{89}{section*.122}
\contentsline {section}{心得}{89}{section*.123}
\contentsline {section}{網際 OpenJSCAD 程式設計(coursemdetw)}{91}{section*.124}
\contentsline {section}{設計程式架構}{91}{section*.125}
\contentsline {section}{結果與討論}{91}{section*.126}
