\relax 
\ifx\hyper@anchor\@undefined
\global \let \oldcontentsline\contentsline
\gdef \contentsline#1#2#3#4{\oldcontentsline{#1}{#2}{#3}}
\global \let \oldnewlabel\newlabel
\gdef \newlabel#1#2{\newlabelxx{#1}#2}
\gdef \newlabelxx#1#2#3#4#5#6{\oldnewlabel{#1}{{#2}{#3}}}
\AtEndDocument{\let \contentsline\oldcontentsline
\let \newlabel\oldnewlabel}
\else
\global \let \hyper@last\relax 
\fi

\providecommand*\HyPL@Entry[1]{}
\HyPL@Entry{0<</S/D>>}
\@writefile{toc}{\contentsline {section}{前言}{6}{section*.2}}
\newlabel{ux524dux8a00}{{}{6}{前言\relax }{section*.2}{}}
\@writefile{toc}{\contentsline {section}{Pandoc 手冊}{7}{section*.3}}
\newlabel{pandoc-ux624bux518a}{{}{7}{Pandoc 手冊\relax }{section*.3}{}}
\@writefile{lof}{\contentsline {figure}{\numberline {1}{\ignorespaces 中美國旗}}{8}{figure.1}}
\@writefile{toc}{\contentsline {section}{協同產品設計實習專案(2ag1)}{8}{section*.4}}
\newlabel{ux5354ux540cux7522ux54c1ux8a2dux8a08ux5be6ux7fd2ux5c08ux68482ag1}{{}{8}{協同產品設計實習專案(2ag1)\relax }{section*.4}{}}
\@writefile{toc}{\contentsline {subsection}{組員}{8}{section*.5}}
\newlabel{ux7d44ux54e1}{{}{8}{組員\relax }{section*.5}{}}
\@writefile{toc}{\contentsline {subsection}{w8考試}{8}{section*.6}}
\newlabel{w8ux8003ux8a66}{{}{8}{w8考試\relax }{section*.6}{}}
\@writefile{toc}{\contentsline {subsection}{w9考試}{9}{section*.7}}
\newlabel{w9ux8003ux8a66}{{}{9}{w9考試\relax }{section*.7}{}}
\@writefile{toc}{\contentsline {subsection}{w12}{11}{section*.8}}
\newlabel{w12}{{}{11}{w12\relax }{section*.8}{}}
\@writefile{toc}{\contentsline {subsection}{w13}{12}{section*.9}}
\newlabel{w13}{{}{12}{w13\relax }{section*.9}{}}
\@writefile{toc}{\contentsline {subsection}{w14}{13}{section*.10}}
\newlabel{w14}{{}{13}{w14\relax }{section*.10}{}}
\@writefile{toc}{\contentsline {subsection}{w15}{15}{section*.11}}
\newlabel{w15}{{}{15}{w15\relax }{section*.11}{}}
\@writefile{toc}{\contentsline {subsection}{w16}{16}{section*.12}}
\newlabel{w16}{{}{16}{w16\relax }{section*.12}{}}
\@writefile{toc}{\contentsline {subsection}{w17}{17}{section*.13}}
\newlabel{w17}{{}{17}{w17\relax }{section*.13}{}}
\@writefile{toc}{\contentsline {subsection}{w18}{17}{section*.14}}
\newlabel{w18}{{}{17}{w18\relax }{section*.14}{}}
\@writefile{toc}{\contentsline {section}{網際鼓式煞車設計(2ag2)}{18}{section*.15}}
\newlabel{ux7db2ux969bux9f13ux5f0fux715eux8ecaux8a2dux8a082ag2}{{}{18}{網際鼓式煞車設計(2ag2)\relax }{section*.15}{}}
\@writefile{toc}{\contentsline {section}{程式設計架構}{18}{section*.16}}
\newlabel{ux7a0bux5f0fux8a2dux8a08ux67b6ux69cb}{{}{18}{程式設計架構\relax }{section*.16}{}}
\@writefile{toc}{\contentsline {section}{結果與討論}{18}{section*.17}}
\newlabel{ux7d50ux679cux8207ux8a0eux8ad6}{{}{18}{結果與討論\relax }{section*.17}{}}
\@writefile{toc}{\contentsline {section}{協同產品設計(2ag3)}{18}{section*.18}}
\newlabel{ux5354ux540cux7522ux54c1ux8a2dux8a082ag3}{{}{18}{協同產品設計(2ag3)\relax }{section*.18}{}}
\@writefile{toc}{\contentsline {subsection}{組員}{18}{section*.19}}
\newlabel{ux7d44ux54e1-1}{{}{18}{組員\relax }{section*.19}{}}
\@writefile{toc}{\contentsline {subsection}{W12任務}{18}{section*.20}}
\newlabel{w12ux4efbux52d9}{{}{18}{W12任務\relax }{section*.20}{}}
\@writefile{toc}{\contentsline {subsection}{W12摘要報告}{18}{section*.21}}
\newlabel{w12ux6458ux8981ux5831ux544a}{{}{18}{W12摘要報告\relax }{section*.21}{}}
\@writefile{toc}{\contentsline {subsection}{W13摘要報告}{20}{section*.22}}
\newlabel{w13ux6458ux8981ux5831ux544a}{{}{20}{W13摘要報告\relax }{section*.22}{}}
\@writefile{toc}{\contentsline {subsection}{W13心得}{21}{section*.23}}
\newlabel{w13ux5fc3ux5f97}{{}{21}{W13心得\relax }{section*.23}{}}
\@writefile{toc}{\contentsline {subsection}{W14摘要報告}{22}{section*.24}}
\newlabel{w14ux6458ux8981ux5831ux544a}{{}{22}{W14摘要報告\relax }{section*.24}{}}
\@writefile{toc}{\contentsline {subsection}{W14心得}{22}{section*.25}}
\newlabel{w14ux5fc3ux5f97}{{}{22}{W14心得\relax }{section*.25}{}}
\@writefile{toc}{\contentsline {subsection}{W15摘要報告}{23}{section*.26}}
\newlabel{w15ux6458ux8981ux5831ux544a}{{}{23}{W15摘要報告\relax }{section*.26}{}}
\@writefile{toc}{\contentsline {subsection}{W15心得}{23}{section*.27}}
\newlabel{w15ux5fc3ux5f97}{{}{23}{W15心得\relax }{section*.27}{}}
\@writefile{toc}{\contentsline {section}{上課內容及連結(2ag4)}{24}{section*.28}}
\newlabel{ux4e0aux8ab2ux5167ux5bb9ux53caux9023ux7d502ag4}{{}{24}{上課內容及連結(2ag4)\relax }{section*.28}{}}
\@writefile{toc}{\contentsline {subsection}{組 員}{24}{section*.29}}
\newlabel{ux7d44-ux54e1}{{}{24}{組 員\relax }{section*.29}{}}
\@writefile{toc}{\contentsline {subsection}{w9}{25}{section*.30}}
\newlabel{w9}{{}{25}{w9\relax }{section*.30}{}}
\@writefile{toc}{\contentsline {subsection}{w12}{25}{section*.31}}
\newlabel{w12-1}{{}{25}{w12\relax }{section*.31}{}}
\@writefile{toc}{\contentsline {subsection}{w13}{25}{section*.32}}
\newlabel{w13-1}{{}{25}{w13\relax }{section*.32}{}}
\@writefile{toc}{\contentsline {subsection}{w14}{25}{section*.33}}
\newlabel{w14-1}{{}{25}{w14\relax }{section*.33}{}}
\@writefile{toc}{\contentsline {subsection}{w15}{26}{section*.34}}
\newlabel{w15-1}{{}{26}{w15\relax }{section*.34}{}}
\@writefile{toc}{\contentsline {subsection}{w16}{26}{section*.35}}
\newlabel{w16-1}{{}{26}{w16\relax }{section*.35}{}}
\@writefile{toc}{\contentsline {subsection}{這裡是結果與討論}{26}{section*.36}}
\newlabel{ux9019ux88e1ux662fux7d50ux679cux8207ux8a0eux8ad6}{{}{26}{這裡是結果與討論\relax }{section*.36}{}}
\@writefile{toc}{\contentsline {section}{協同產品設計(2ag5)}{26}{section*.37}}
\newlabel{ux5354ux540cux7522ux54c1ux8a2dux8a082ag5}{{}{26}{協同產品設計(2ag5)\relax }{section*.37}{}}
\@writefile{toc}{\contentsline {subsection}{期中內容摘要}{26}{section*.38}}
\newlabel{ux671fux4e2dux5167ux5bb9ux6458ux8981}{{}{26}{期中內容摘要\relax }{section*.38}{}}
\@writefile{toc}{\contentsline {subsection}{2014s\_cd\_w12}{27}{section*.39}}
\newlabel{sux5fcdux5fw12}{{}{27}{2014s\_cd\_w12\relax }{section*.39}{}}
\@writefile{toc}{\contentsline {subsection}{2014s\_cd\_w13}{27}{section*.40}}
\newlabel{sux5fcdux5fw13}{{}{27}{2014s\_cd\_w13\relax }{section*.40}{}}
\@writefile{toc}{\contentsline {subsection}{2014s\_cd\_w14}{30}{section*.41}}
\newlabel{sux5fcdux5fw14}{{}{30}{2014s\_cd\_w14\relax }{section*.41}{}}
\@writefile{toc}{\contentsline {subsection}{2014s\_cd\_w15}{31}{section*.42}}
\newlabel{sux5fcdux5fw15}{{}{31}{2014s\_cd\_w15\relax }{section*.42}{}}
\@writefile{toc}{\contentsline {subsection}{2014s\_cd\_w16\textasciitilde {}18}{32}{section*.43}}
\newlabel{sux5fcdux5fw1618}{{}{32}{2014s\_cd\_w16\textasciitilde {}18\relax }{section*.43}{}}
\@writefile{toc}{\contentsline {subsection}{期末專案報告}{33}{section*.44}}
\newlabel{ux671fux672bux5c08ux6848ux5831ux544a}{{}{33}{期末專案報告\relax }{section*.44}{}}
\@writefile{lof}{\contentsline {figure}{\numberline {2}{\ignorespaces cdag5\_3\_1}}{36}{figure.2}}
\@writefile{lof}{\contentsline {figure}{\numberline {3}{\ignorespaces cdag5\_4\_1}}{36}{figure.3}}
\@writefile{lof}{\contentsline {figure}{\numberline {4}{\ignorespaces cdag5\_5\_1}}{37}{figure.4}}
\@writefile{lof}{\contentsline {figure}{\numberline {5}{\ignorespaces cdag5\_6\_1}}{37}{figure.5}}
\@writefile{lof}{\contentsline {figure}{\numberline {6}{\ignorespaces cdag5\_7\_1}}{37}{figure.6}}
\@writefile{lof}{\contentsline {figure}{\numberline {7}{\ignorespaces cdag5\_8\_1}}{38}{figure.7}}
\@writefile{lof}{\contentsline {figure}{\numberline {8}{\ignorespaces cdag5\_9\_1}}{38}{figure.8}}
\@writefile{lof}{\contentsline {figure}{\numberline {9}{\ignorespaces cdag5\_10\_1}}{39}{figure.9}}
\@writefile{lof}{\contentsline {figure}{\numberline {10}{\ignorespaces cdag5\_11\_1}}{39}{figure.10}}
\@writefile{toc}{\contentsline {section}{協同產品設計實習(2ag6)}{40}{section*.45}}
\newlabel{ux5354ux540cux7522ux54c1ux8a2dux8a08ux5be6ux7fd22ag6}{{}{40}{協同產品設計實習(2ag6)\relax }{section*.45}{}}
\@writefile{toc}{\contentsline {subsection}{組員}{40}{section*.46}}
\newlabel{ux7d44ux54e1-2}{{}{40}{組員\relax }{section*.46}{}}
\@writefile{toc}{\contentsline {subsection}{第八週考試內容}{40}{section*.47}}
\newlabel{ux7b2cux516bux9031ux8003ux8a66ux5167ux5bb9}{{}{40}{第八週考試內容\relax }{section*.47}{}}
\@writefile{toc}{\contentsline {subsection}{第九週考試內容}{41}{section*.48}}
\newlabel{ux7b2cux4e5dux9031ux8003ux8a66ux5167ux5bb9}{{}{41}{第九週考試內容\relax }{section*.48}{}}
\@writefile{toc}{\contentsline {subsection}{第十二週任務}{41}{section*.49}}
\newlabel{ux7b2cux5341ux4e8cux9031ux4efbux52d9}{{}{41}{第十二週任務\relax }{section*.49}{}}
\@writefile{toc}{\contentsline {subsection}{第十三週任務}{41}{section*.50}}
\newlabel{ux7b2cux5341ux4e09ux9031ux4efbux52d9}{{}{41}{第十三週任務\relax }{section*.50}{}}
\@writefile{toc}{\contentsline {subsection}{第十四週任務}{42}{section*.51}}
\newlabel{ux7b2cux5341ux56dbux9031ux4efbux52d9}{{}{42}{第十四週任務\relax }{section*.51}{}}
\@writefile{toc}{\contentsline {subsection}{第十五週任務}{43}{section*.52}}
\newlabel{ux7b2cux5341ux4e94ux9031ux4efbux52d9}{{}{43}{第十五週任務\relax }{section*.52}{}}
\@writefile{toc}{\contentsline {section}{協同產品設計實習專案(2ag7)}{43}{section*.53}}
\newlabel{ux5354ux540cux7522ux54c1ux8a2dux8a08ux5be6ux7fd2ux5c08ux68482ag7}{{}{43}{協同產品設計實習專案(2ag7)\relax }{section*.53}{}}
\@writefile{toc}{\contentsline {subsection}{組員}{43}{section*.54}}
\newlabel{ux7d44ux54e1-3}{{}{43}{組員\relax }{section*.54}{}}
\@writefile{toc}{\contentsline {subsection}{w8摘要}{43}{section*.55}}
\newlabel{w8ux6458ux8981}{{}{43}{w8摘要\relax }{section*.55}{}}
\@writefile{toc}{\contentsline {subsection}{w9摘要}{44}{section*.56}}
\newlabel{w9ux6458ux8981}{{}{44}{w9摘要\relax }{section*.56}{}}
\@writefile{toc}{\contentsline {subsection}{w12}{44}{section*.57}}
\newlabel{w12-2}{{}{44}{w12\relax }{section*.57}{}}
\@writefile{toc}{\contentsline {subsection}{w13}{45}{section*.58}}
\newlabel{w13-2}{{}{45}{w13\relax }{section*.58}{}}
\@writefile{toc}{\contentsline {subsection}{w14}{46}{section*.59}}
\newlabel{w14-2}{{}{46}{w14\relax }{section*.59}{}}
\@writefile{toc}{\contentsline {subsection}{w15}{47}{section*.60}}
\newlabel{w15-2}{{}{47}{w15\relax }{section*.60}{}}
\@writefile{toc}{\contentsline {subsection}{w16}{49}{section*.61}}
\newlabel{w16-2}{{}{49}{w16\relax }{section*.61}{}}
\@writefile{toc}{\contentsline {section}{網際鼓式煞車設計(2ag8)}{49}{section*.62}}
\newlabel{ux7db2ux969bux9f13ux5f0fux715eux8ecaux8a2dux8a082ag8}{{}{49}{網際鼓式煞車設計(2ag8)\relax }{section*.62}{}}
\@writefile{toc}{\contentsline {section}{程式碼}{50}{section*.63}}
\newlabel{ux7a0bux5f0fux78bc}{{}{50}{程式碼\relax }{section*.63}{}}
\@writefile{toc}{\contentsline {section}{協同產品設計實習(cdag9)}{51}{section*.64}}
\newlabel{ux5354ux540cux7522ux54c1ux8a2dux8a08ux5be6ux7fd2cdag9}{{}{51}{協同產品設計實習(cdag9)\relax }{section*.64}{}}
\@writefile{toc}{\contentsline {subsection}{組員}{51}{section*.65}}
\newlabel{ux7d44ux54e1-4}{{}{51}{組員\relax }{section*.65}{}}
\@writefile{toc}{\contentsline {subsection}{W9考試}{52}{section*.66}}
\newlabel{w9ux8003ux8a66-1}{{}{52}{W9考試\relax }{section*.66}{}}
\@writefile{toc}{\contentsline {subsection}{W13}{52}{section*.67}}
\newlabel{w13-3}{{}{52}{W13\relax }{section*.67}{}}
\@writefile{toc}{\contentsline {subsection}{W14}{53}{section*.68}}
\newlabel{w14-3}{{}{53}{W14\relax }{section*.68}{}}
\@writefile{toc}{\contentsline {subsection}{W15}{53}{section*.69}}
\newlabel{w15-3}{{}{53}{W15\relax }{section*.69}{}}
\@writefile{toc}{\contentsline {section}{cd2ag10報告(2ag10)}{53}{section*.70}}
\newlabel{cd2ag10ux5831ux544a2ag10}{{}{53}{cd2ag10報告(2ag10)\relax }{section*.70}{}}
\@writefile{toc}{\contentsline {subsection}{第十組組員(2ag10)}{54}{section*.71}}
\newlabel{ux7b2cux5341ux7d44ux7d44ux54e12ag10}{{}{54}{第十組組員(2ag10)\relax }{section*.71}{}}
\@writefile{toc}{\contentsline {subsection}{第八週考試摘要(2ag10)}{54}{section*.72}}
\newlabel{ux7b2cux516bux9031ux8003ux8a66ux6458ux89812ag10}{{}{54}{第八週考試摘要(2ag10)\relax }{section*.72}{}}
\@writefile{toc}{\contentsline {subsection}{第八週報告(2ag10)}{56}{section*.73}}
\newlabel{ux7b2cux516bux9031ux5831ux544a2ag10}{{}{56}{第八週報告(2ag10)\relax }{section*.73}{}}
\@writefile{toc}{\contentsline {subsection}{第九週考試摘要(2ag10)}{57}{section*.74}}
\newlabel{ux7b2cux4e5dux9031ux8003ux8a66ux6458ux89812ag10}{{}{57}{第九週考試摘要(2ag10)\relax }{section*.74}{}}
\@writefile{toc}{\contentsline {subsection}{第九週報告(2ag10)}{58}{section*.75}}
\newlabel{ux7b2cux4e5dux9031ux5831ux544a2ag10}{{}{58}{第九週報告(2ag10)\relax }{section*.75}{}}
\@writefile{toc}{\contentsline {subsection}{第十二週報告(2ag10)}{61}{section*.76}}
\newlabel{ux7b2cux5341ux4e8cux9031ux5831ux544a2ag10}{{}{61}{第十二週報告(2ag10)\relax }{section*.76}{}}
\@writefile{toc}{\contentsline {subsection}{第十二週評分(2ag10)}{63}{section*.77}}
\newlabel{ux7b2cux5341ux4e8cux9031ux8a55ux52062ag10}{{}{63}{第十二週評分(2ag10)\relax }{section*.77}{}}
\@writefile{toc}{\contentsline {subsection}{第十三週考試(2ag10)}{63}{section*.78}}
\newlabel{ux7b2cux5341ux4e09ux9031ux8003ux8a662ag10}{{}{63}{第十三週考試(2ag10)\relax }{section*.78}{}}
\@writefile{toc}{\contentsline {subsection}{第十三週報告(2ag10)}{64}{section*.79}}
\newlabel{ux7b2cux5341ux4e09ux9031ux5831ux544a2ag10}{{}{64}{第十三週報告(2ag10)\relax }{section*.79}{}}
\@writefile{toc}{\contentsline {subsection}{第十三週評分(2ag10)}{64}{section*.80}}
\newlabel{ux7b2cux5341ux4e09ux9031ux8a55ux52062ag10}{{}{64}{第十三週評分(2ag10)\relax }{section*.80}{}}
\@writefile{toc}{\contentsline {subsection}{第十四週任務(2ag10)}{65}{section*.81}}
\newlabel{ux7b2cux5341ux56dbux9031ux4efbux52d92ag10}{{}{65}{第十四週任務(2ag10)\relax }{section*.81}{}}
\@writefile{toc}{\contentsline {subsection}{第十四週報告(2ag10)}{65}{section*.82}}
\newlabel{ux7b2cux5341ux56dbux9031ux5831ux544a2ag10}{{}{65}{第十四週報告(2ag10)\relax }{section*.82}{}}
\@writefile{toc}{\contentsline {subsection}{第十四週評分(2ag10)}{66}{section*.83}}
\newlabel{ux7b2cux5341ux56dbux9031ux8a55ux52062ag10}{{}{66}{第十四週評分(2ag10)\relax }{section*.83}{}}
\@writefile{toc}{\contentsline {subsection}{第十五週任務(2ag10)}{66}{section*.84}}
\newlabel{ux7b2cux5341ux4e94ux9031ux4efbux52d92ag10}{{}{66}{第十五週任務(2ag10)\relax }{section*.84}{}}
\@writefile{toc}{\contentsline {subsection}{第十五週報告(2ag10)}{67}{section*.85}}
\newlabel{ux7b2cux5341ux4e94ux9031ux5831ux544a2ag10}{{}{67}{第十五週報告(2ag10)\relax }{section*.85}{}}
\@writefile{toc}{\contentsline {section}{cd2ag11報告(2ag11)}{68}{section*.86}}
\newlabel{cd2ag11ux5831ux544a2ag11}{{}{68}{cd2ag11報告(2ag11)\relax }{section*.86}{}}
\@writefile{toc}{\contentsline {section}{第十一組組員(2ag11)}{68}{section*.87}}
\newlabel{ux7b2cux5341ux4e00ux7d44ux7d44ux54e12ag11}{{}{68}{第十一組組員(2ag11)\relax }{section*.87}{}}
\@writefile{toc}{\contentsline {section}{convert user\_password into sha1 encoded string}{68}{section*.88}}
\newlabel{convert-userux5fpassword-into-sha1-encoded-string}{{}{68}{convert user\_password into sha1 encoded string\relax }{section*.88}{}}
\@writefile{toc}{\contentsline {section}{generate random user password}{69}{section*.89}}
\newlabel{generate-random-user-password}{{}{69}{generate random user password\relax }{section*.89}{}}
\@writefile{toc}{\contentsline {section}{call gen\_users\_auth\_php() to generate users\_auth.php file}{69}{section*.90}}
\newlabel{call-genux5fusersux5fauthux5fphp-to-generate-usersux5fauth.php-file}{{}{69}{call gen\_users\_auth\_php() to generate users\_auth.php file\relax }{section*.90}{}}
\@writefile{toc}{\contentsline {section}{網際鼓式煞車設計(2ag12)}{72}{section*.91}}
\newlabel{ux7db2ux969bux9f13ux5f0fux715eux8ecaux8a2dux8a082ag12}{{}{72}{網際鼓式煞車設計(2ag12)\relax }{section*.91}{}}
\@writefile{toc}{\contentsline {section}{程式設計架構}{72}{section*.92}}
\newlabel{ux7a0bux5f0fux8a2dux8a08ux67b6ux69cb-1}{{}{72}{程式設計架構\relax }{section*.92}{}}
\@writefile{toc}{\contentsline {section}{結果與討論}{72}{section*.93}}
\newlabel{ux7d50ux679cux8207ux8a0eux8ad6-1}{{}{72}{結果與討論\relax }{section*.93}{}}
\@writefile{toc}{\contentsline {section}{協同產品設計實習專案(2ag13)}{72}{section*.94}}
\newlabel{ux5354ux540cux7522ux54c1ux8a2dux8a08ux5be6ux7fd2ux5c08ux68482ag13}{{}{72}{協同產品設計實習專案(2ag13)\relax }{section*.94}{}}
\@writefile{toc}{\contentsline {subsection}{組員：}{72}{section*.95}}
\newlabel{ux7d44ux54e1-5}{{}{72}{組員：\relax }{section*.95}{}}
\@writefile{toc}{\contentsline {section}{協同產品設計實習專案(2ag14)}{75}{section*.96}}
\newlabel{ux5354ux540cux7522ux54c1ux8a2dux8a08ux5be6ux7fd2ux5c08ux68482ag14}{{}{75}{協同產品設計實習專案(2ag14)\relax }{section*.96}{}}
\@writefile{toc}{\contentsline {subsection}{組員}{75}{section*.97}}
\newlabel{ux7d44ux54e1-6}{{}{75}{組員\relax }{section*.97}{}}
\@writefile{toc}{\contentsline {subsection}{w8}{76}{section*.98}}
\newlabel{w8}{{}{76}{w8\relax }{section*.98}{}}
\@writefile{toc}{\contentsline {subsection}{w9}{79}{section*.99}}
\newlabel{w9-1}{{}{79}{w9\relax }{section*.99}{}}
\@writefile{toc}{\contentsline {subsection}{w13}{80}{section*.100}}
\newlabel{w13-4}{{}{80}{w13\relax }{section*.100}{}}
\@writefile{toc}{\contentsline {subsection}{w14}{80}{section*.101}}
\newlabel{w14-4}{{}{80}{w14\relax }{section*.101}{}}
\@writefile{toc}{\contentsline {subsection}{w15}{81}{section*.102}}
\newlabel{w15-4}{{}{81}{w15\relax }{section*.102}{}}
\@writefile{toc}{\contentsline {section}{網際鼓式煞車設計(2ag15)}{82}{section*.103}}
\newlabel{ux7db2ux969bux9f13ux5f0fux715eux8ecaux8a2dux8a082ag15}{{}{82}{網際鼓式煞車設計(2ag15)\relax }{section*.103}{}}
\@writefile{toc}{\contentsline {section}{程式設計架構}{82}{section*.104}}
\newlabel{ux7a0bux5f0fux8a2dux8a08ux67b6ux69cb-2}{{}{82}{程式設計架構\relax }{section*.104}{}}
\@writefile{toc}{\contentsline {section}{結果與討論}{82}{section*.105}}
\newlabel{ux7d50ux679cux8207ux8a0eux8ad6-2}{{}{82}{結果與討論\relax }{section*.105}{}}
\@writefile{toc}{\contentsline {section}{協同產品設計實習專案(2ag16)}{84}{section*.106}}
\newlabel{ux5354ux540cux7522ux54c1ux8a2dux8a08ux5be6ux7fd2ux5c08ux68482ag16}{{}{84}{協同產品設計實習專案(2ag16)\relax }{section*.106}{}}
\@writefile{toc}{\contentsline {section}{W14}{84}{section*.107}}
\newlabel{w14-5}{{}{84}{W14\relax }{section*.107}{}}
\@writefile{toc}{\contentsline {subsection}{W14 任務 3 (5 分): 請修改上週小人偶自動組立程式, 以組為單位, 將組立命名為 remsub6 函式, 當使用者連結至各組雲端網站中的 remsub6, 可以完成自動組立, 操作完成後, 請將分組心得與相關連結放入各組協同報告中}{85}{section*.108}}
\newlabel{w14-ux4efbux52d9-3-5-ux5206-ux8acbux4feeux6539ux4e0aux9031ux5c0fux4ebaux5076ux81eaux52d5ux7d44ux7acbux7a0bux5f0f-ux4ee5ux7d44ux70baux55aeux4f4d-ux5c07ux7d44ux7acbux547dux540dux70ba-remsub6-ux51fdux5f0f-ux7576ux4f7fux7528ux8005ux9023ux7d50ux81f3ux5404ux7d44ux96f2ux7aefux7db2ux7ad9ux4e2dux7684-remsub6-ux53efux4ee5ux5b8cux6210ux81eaux52d5ux7d44ux7acb-ux64cdux4f5cux5b8cux6210ux5f8c-ux8acbux5c07ux5206ux7d44ux5fc3ux5f97ux8207ux76f8ux95dcux9023ux7d50ux653eux5165ux5404ux7d44ux5354ux540cux5831ux544aux4e2d}{{}{85}{W14 任務 3 (5 分): 請修改上週小人偶自動組立程式, 以組為單位, 將組立命名為 remsub6 函式, 當使用者連結至各組雲端網站中的 remsub6, 可以完成自動組立, 操作完成後, 請將分組心得與相關連結放入各組協同報告中\relax }{section*.108}{}}
\@writefile{toc}{\contentsline {subsection}{心得: 這禮拜任務跟上禮拜很像都是組裝，不過這禮拜遇到的問題，卻跟上禮拜的不太一樣，這禮拜所遇到的問題是在Creo裡面如何將單一零件固定在正中間，想了很 多辦法，有一部分是不太會用creo，有一部分是高職時未學過3D軟體，所以在使用過程會遇到很多問題，不過有請教同學。}{85}{section*.109}}
\newlabel{ux5fc3ux5f97-ux9019ux79aeux62dcux4efbux52d9ux8ddfux4e0aux79aeux62dcux5f88ux50cfux90fdux662fux7d44ux88ddux4e0dux904eux9019ux79aeux62dcux9047ux5230ux7684ux554fux984cux537bux8ddfux4e0aux79aeux62dcux7684ux4e0dux592aux4e00ux6a23ux9019ux79aeux62dcux6240ux9047ux5230ux7684ux554fux984cux662fux5728creoux88e1ux9762ux5982ux4f55ux5c07ux55aeux4e00ux96f6ux4ef6ux56faux5b9aux5728ux6b63ux4e2dux9593ux60f3ux4e86ux5f88-ux591aux8fa6ux6cd5ux6709ux4e00ux90e8ux5206ux662fux4e0dux592aux6703ux7528creoux6709ux4e00ux90e8ux5206ux662fux9ad8ux8077ux6642ux672aux5b78ux904e3dux8edfux9ad4ux6240ux4ee5ux5728ux4f7fux7528ux904eux7a0bux6703ux9047ux5230ux5f88ux591aux554fux984cux4e0dux904eux6709ux8acbux6559ux540cux5b78}{{}{85}{心得: 這禮拜任務跟上禮拜很像都是組裝，不過這禮拜遇到的問題，卻跟上禮拜的不太一樣，這禮拜所遇到的問題是在Creo裡面如何將單一零件固定在正中間，想了很 多辦法，有一部分是不太會用creo，有一部分是高職時未學過3D軟體，所以在使用過程會遇到很多問題，不過有請教同學。\relax }{section*.109}{}}
\@writefile{toc}{\contentsline {subsection}{vimeo影片: https://vimeo.com/96809624}{85}{section*.110}}
\newlabel{vimeoux5f71ux7247-httpsvimeo.com96809624}{{}{85}{vimeo影片: https://vimeo.com/96809624\relax }{section*.110}{}}
\@writefile{toc}{\contentsline {section}{協同產品設計實習專案(2ag16)}{86}{section*.111}}
\newlabel{ux5354ux540cux7522ux54c1ux8a2dux8a08ux5be6ux7fd2ux5c08ux68482ag16-1}{{}{86}{協同產品設計實習專案(2ag16)\relax }{section*.111}{}}
\@writefile{toc}{\contentsline {section}{W15}{86}{section*.112}}
\newlabel{w15-5}{{}{86}{W15\relax }{section*.112}{}}
\@writefile{toc}{\contentsline {subsection}{W15 任務 3 (5 分): 請修改上週小人偶自動組立程式, 以組為單位, 將組立命名為 remsub5 函式, 當使用者連結至各組雲端網站中的 remsub5, 可以完成自動組立, 操作完成後, 請將分組心得與相關連結放入各組協同報告中.}{86}{section*.113}}
\newlabel{w15-ux4efbux52d9-3-5-ux5206-ux8acbux4feeux6539ux4e0aux9031ux5c0fux4ebaux5076ux81eaux52d5ux7d44ux7acbux7a0bux5f0f-ux4ee5ux7d44ux70baux55aeux4f4d-ux5c07ux7d44ux7acbux547dux540dux70ba-remsub5-ux51fdux5f0f-ux7576ux4f7fux7528ux8005ux9023ux7d50ux81f3ux5404ux7d44ux96f2ux7aefux7db2ux7ad9ux4e2dux7684-remsub5-ux53efux4ee5ux5b8cux6210ux81eaux52d5ux7d44ux7acb-ux64cdux4f5cux5b8cux6210ux5f8c-ux8acbux5c07ux5206ux7d44ux5fc3ux5f97ux8207ux76f8ux95dcux9023ux7d50ux653eux5165ux5404ux7d44ux5354ux540cux5831ux544aux4e2d.}{{}{86}{W15 任務 3 (5 分): 請修改上週小人偶自動組立程式, 以組為單位, 將組立命名為 remsub5 函式, 當使用者連結至各組雲端網站中的 remsub5, 可以完成自動組立, 操作完成後, 請將分組心得與相關連結放入各組協同報告中}{section*.113}{}}
\@writefile{toc}{\contentsline {subsection}{心得:由於上次對creo繪圖軟體不熟，經過上次的練習，以及自己回家練習後，對軟體有深入的了解，上次一直在想如何將零件置中，後來想到到零件裡面長出 的不分讓他左右平均長出，這禮拜又發現有新的方法，就是將獨立零件設立一個面在中間，這樣一來就可以方便讓零件置中，也不會影響到協同的夥伴們。 這禮拜教授一樣要讓我們學習如何組裝零件，讓我們更熟悉如何組裝，這樣在打程式的過程中，才知道要先組裝哪個零件要先組裝哪一個零件。}{87}{section*.114}}
\newlabel{ux5fc3ux5f97ux7531ux65bcux4e0aux6b21ux5c0dcreoux7e6aux5716ux8edfux9ad4ux4e0dux719fux7d93ux904eux4e0aux6b21ux7684ux7df4ux7fd2ux4ee5ux53caux81eaux5df1ux56deux5bb6ux7df4ux7fd2ux5f8cux5c0dux8edfux9ad4ux6709ux6df1ux5165ux7684ux4e86ux89e3ux4e0aux6b21ux4e00ux76f4ux5728ux60f3ux5982ux4f55ux5c07ux96f6ux4ef6ux7f6eux4e2dux5f8cux4f86ux60f3ux5230ux5230ux96f6ux4ef6ux88e1ux9762ux9577ux51fa-ux7684ux4e0dux5206ux8b93ux4ed6ux5de6ux53f3ux5e73ux5747ux9577ux51faux9019ux79aeux62dcux53c8ux767cux73feux6709ux65b0ux7684ux65b9ux6cd5ux5c31ux662fux5c07ux7368ux7acbux96f6ux4ef6ux8a2dux7acbux4e00ux500bux9762ux5728ux4e2dux9593ux9019ux6a23ux4e00ux4f86ux5c31ux53efux4ee5ux65b9ux4fbfux8b93ux96f6ux4ef6ux7f6eux4e2dux4e5fux4e0dux6703ux5f71ux97ffux5230ux5354ux540cux7684ux5925ux4f34ux5011-ux9019ux79aeux62dcux6559ux6388ux4e00ux6a23ux8981ux8b93ux6211ux5011ux5b78ux7fd2ux5982ux4f55ux7d44ux88ddux96f6ux4ef6ux8b93ux6211ux5011ux66f4ux719fux6089ux5982ux4f55ux7d44ux88ddux9019ux6a23ux5728ux6253ux7a0bux5f0fux7684ux904eux7a0bux4e2dux624dux77e5ux9053ux8981ux5148ux7d44ux88ddux54eaux500bux96f6ux4ef6ux8981ux5148ux7d44ux88ddux54eaux4e00ux500bux96f6ux4ef6}{{}{87}{心得:由於上次對creo繪圖軟體不熟，經過上次的練習，以及自己回家練習後，對軟體有深入的了解，上次一直在想如何將零件置中，後來想到到零件裡面長出 的不分讓他左右平均長出，這禮拜又發現有新的方法，就是將獨立零件設立一個面在中間，這樣一來就可以方便讓零件置中，也不會影響到協同的夥伴們。 這禮拜教授一樣要讓我們學習如何組裝零件，讓我們更熟悉如何組裝，這樣在打程式的過程中，才知道要先組裝哪個零件要先組裝哪一個零件。\relax }{section*.114}{}}
\@writefile{toc}{\contentsline {subsection}{CMSimply網站，Edit→圖片→Image URL→右側圖案→image upload→404 Not Found 發現問題}{87}{section*.115}}
\newlabel{cmsimplyux7db2ux7ad9editux5716ux7247image-urlux53f3ux5074ux5716ux6848image-upload404-not-found-ux767cux73feux554fux984c}{{}{87}{CMSimply網站，Edit→圖片→Image URL→右側圖案→image upload→404 Not Found 發現問題\relax }{section*.115}{}}
\@writefile{toc}{\contentsline {section}{組員}{87}{section*.116}}
\newlabel{ux7d44ux54e1-7}{{}{87}{組員\relax }{section*.116}{}}
\@writefile{toc}{\contentsline {section}{第八週摘要報告}{88}{section*.117}}
\newlabel{ux7b2cux516bux9031ux6458ux8981ux5831ux544a}{{}{88}{第八週摘要報告\relax }{section*.117}{}}
\@writefile{toc}{\contentsline {section}{第九週摘要報告}{88}{section*.118}}
\newlabel{ux7b2cux4e5dux9031ux6458ux8981ux5831ux544a}{{}{88}{第九週摘要報告\relax }{section*.118}{}}
\@writefile{toc}{\contentsline {section}{第13週}{89}{section*.119}}
\newlabel{ux7b2c13ux9031}{{}{89}{第13週\relax }{section*.119}{}}
\@writefile{toc}{\contentsline {section}{第14週}{89}{section*.120}}
\newlabel{ux7b2c14ux9031}{{}{89}{第14週\relax }{section*.120}{}}
\@writefile{toc}{\contentsline {section}{心得}{89}{section*.121}}
\newlabel{ux5fc3ux5f97}{{}{89}{心得\relax }{section*.121}{}}
\@writefile{toc}{\contentsline {section}{第15週}{89}{section*.122}}
\newlabel{ux7b2c15ux9031}{{}{89}{第15週\relax }{section*.122}{}}
\@writefile{toc}{\contentsline {section}{心得}{89}{section*.123}}
\newlabel{ux5fc3ux5f97-1}{{}{89}{心得\relax }{section*.123}{}}
\@writefile{toc}{\contentsline {section}{網際 OpenJSCAD 程式設計(coursemdetw)}{91}{section*.124}}
\newlabel{ux7db2ux969b-openjscad-ux7a0bux5f0fux8a2dux8a08coursemdetw}{{}{91}{網際 OpenJSCAD 程式設計(coursemdetw)\relax }{section*.124}{}}
\@writefile{toc}{\contentsline {section}{設計程式架構}{91}{section*.125}}
\newlabel{ux8a2dux8a08ux7a0bux5f0fux67b6ux69cb}{{}{91}{設計程式架構\relax }{section*.125}{}}
\@writefile{toc}{\contentsline {section}{結果與討論}{91}{section*.126}}
\newlabel{ux7d50ux679cux8207ux8a0eux8ad6-3}{{}{91}{結果與討論\relax }{section*.126}{}}
